Day 4: More Spatial Operations
…
Now say you wanted to do this for every park in the city. All we have to do is remove the slice operation from the dc_parks dataframe:

dists <- st_distance(dc_parks, fire_stations %>% slice(1:5))

min_dists <- dists %>%
  as_tibble() %>%
  mutate(min_dist = pmap_dbl(., min)) %>%
  select(min_dist)
min_dists

## # A tibble: 256 x 1
##    min_dist
##       <dbl>
##  1    6946.
##  2    9399.
##  3    8297.
##  4    7283.
##  5    3329.
##  6    2918.
##  7     233.
##  8    4498.
##  9    4450.
## 10    1008.
## #  with 246 more rows

Now say you wanted to find the minimum distance between every park and its closest fire station: WARNING, the below code chunk may take a long time to run!

dists <- st_distance(dc_parks, fire_stations)

min_dists <- dists %>%
  as_tibble() %>%
  mutate(min_dist = pmap_dbl(., min)) %>%
  select(min_dist)
min_dists

## # A tibble: 256 x 1
##    min_dist
##       <dbl>
##  1    1163.
##  2     503.
##  3     637.
##  4     723.
##  5     119.
##  6     248.
##  7     233.
##  8     653.
##  9     660.
## 10     186.
## #  with 246 more rows
…
